Summarize simulated data with duckdb – mrgsolve/blog
…
)

   user  system elapsed 
 50.994   8.325  51.238 

dbDisconnect(con, shutdown = TRUE)

as_tibble(summ)

# A tibble: 2,000 × 7
    dose  time   rep     n Lower Median Upper
   <dbl> <dbl> <int> <dbl> <dbl>  <dbl> <dbl>
 1   300   672     1  3000 0.834   7.90  32.6
 2   300   672     2  3000 0.903   7.91  30.2
 3   300   672     3  3000 0.937   8.11  32.0
 4   300   672     4  3000 0.811   8.08  32.1
 5   300   672     5  3000 0.977   8.19  33.7
 6   300   672     6  3000 0.721   8.04  31.5
 7   300   672     7  3000 0.895   8.26  35.4
 8   300   672     8  3000 0.679   8.11  31.7
 9   300   672     9  3000 0.807   7.93  31.9
10   300   672    10  3000 0.846   8.04  32.7
# ℹ 1,990 more rows
…
})

   user  system elapsed 
 51.160   7.357  53.934 

summ2

# A tibble: 2,000 × 7
    dose  time   rep     n Lower Median Upper
   <dbl> <dbl> <int> <dbl> <dbl>  <dbl> <dbl>
 1   300   672     1  3000 0.834   7.90  32.6
 2  1000   672     1  3000 2.74   28.2  112. 
 3   300   672     2  3000 0.903   7.91  30.2
 4  1000   672     2  3000 2.78   27.1  106. 
 5   300   672     3  3000 0.937   8.11  32.0
 6  1000   672     3  3000 2.62   26.1  103. 
 7   300   672     4  3000 0.811   8.08  32.1
 8  1000   672     4  3000 2.58   26.5  103. 
 9   300   672     5  3000 0.977   8.19  33.7
10  1000   672     5  3000 2.66   26.4  108. 
# ℹ 1,990 more rows
